{
  "project_info": {
    "project_number": "377205793927",
    "firebase_url": "https://family-day-2a6d7.firebaseio.com",
    "project_id": "family-day-2a6d7",
    "storage_bucket": "family-day-2a6d7.appspot.com"
  },
  "client": [
    {
      "client_info": {
        "mobilesdk_app_id": "1:377205793927:android:686b7961eb28615159c422",
        "android_client_info": {
          "package_name": "br.pucpr.appdev.familyday"
        }
      },
      "oauth_client": [
        {
          "client_id": "377205793927-r42t4jb02sufnnu3sn6q3kq14glujv5q.apps.googleusercontent.com",
          "client_type": 3
        }
      ],
      "api_key": [
        {
          "current_key": "AIzaSyChatTu7vLrw8qeAGfXEPHI2L9_5iUaAM0"
        }
      ],
      "services": {
        "appinvite_service": {
          "other_platform_oauth_client": [
            {
              "client_id": "377205793927-r42t4jb02sufnnu3sn6q3kq14glujv5q.apps.googleusercontent.com",
              "client_type": 3
            },
            {
              "client_id": "377205793927-26o2hrhdkib99vck5340alji9irmdan6.apps.googleusercontent.com",
              "client_type": 2,
              "ios_info": {
                "bundle_id": "br.com.FamilyDay.ios"
              }
            }
          ]
        }
      }
    }
  ],
  "configuration_version": "1"
}